[
    {
	"name": "Red Delicious envase Caja 19 Kgs.",
	"header": [40,45,50,55,60,65,70,75,80,85,90,95,100,105,110,115,120,125,130,135,140,145,150],
	"rows": [
	    {
		"tc": 64,
		"cells": [33.4,37.1,41,44.9,48.8,52.7,56.5,60.1,63.6,66.8,69.8,72.6,75,77.3,79.3,81,82.6,83.9,85.1,86.1,87,87.8]
	    },
	    {
		"tc": 72,
		"cells": [33.7,37.1,40.5,44.1,47.6,51.1,54.5,57.9,61,64.1,66.9,69.5,71.9,74.1,76.1,77.9,79.5,80.9,82.1,83.2,84.2,85]
	    },
	    {
		"tc": 80,
		"cells": [31.8,35,38.2,41.5,44.9,48.2,51.5,54.7,57.8,60.7,63.5,66.2,68.6,70.8,72.9,74.7,76.4,77.9,79.2,80.4,81.4,82.3]
	    },
	    {
		"tc": 88,
		"cells": [31.8,34.7,37.8,40.8,43.9,47,50.1,53.1,55.9,58.7,61.3,63.7,66,68.1,70.1,71.8,73.4,74.9,76.2,77.3,78.4,79.3]
	    },
	    {
		"tc": 100,
		"cells": [30.7,33.5,36.3,39.2,42.2,45.1,48,50.8,53.6,56.2,58.7,61.1,63.3,65.4,67.3,69.1,70.7,72.1,73.4,74.6,75.7,76.6]
	    },
	    {
		"tc": 113,
		"cells": [30.4,33.1,35.8,38.6,41.4,44.2,46.9,49.6,52.2,54.6,57,59.2,61.3,63.2,64.9,66.6,68,69.4,70.6,71.7,72.6,73.5]
	    },
	    {
		"tc": 125,
		"cells": [29.8,32.4,35,37.7,40.4,43,45.6,48.2,50.7,53,55.3,57.4,59.4,61.2,62.9,64.5,65.9,67.2,68.4,69.4,70.3,71.2]
	    },
	    {
		"tc": 138,
		"cells": [29.2,31.6,34.1,36.6,39.1,41.7,44.2,46.6,48.9,51.2,53.3,55.4,57.3,59.1,60.7,62.2,63.6,64.9,66,67.1,68,68.8]
	    },
	    {
		"tc": 150,
		"cells": [28.7,31,33.4,35.8,38.2,40.6,43,45.3,47.5,49.7,51.8,53.8,55.6,57.3,59,60.5,61.8,63.1,64.2,65.3,66.2,67.1]
	    },
	    {
		"tc": 163,
		"cells": [28,30.3,32.7,35.1,37.5,39.8,42.2,44.5,46.7,48.8,50.8,52.7,54.5,56.2,57.7,59.1,60.4,61.6,62.7,63.7,64.5,65.3]
	    }
	]
    },
    {
	"name": "Red Delicious envase MARK IV 18 Kgs.",
	"header": [40,45,50,55,60,65,70,75,80,85,90,95,100,105,110,115,120,125,130,135,140,145,150],
	"rows": [
	    {
		"tc": 60,
		"cells": [33.7,37.3,41,44.9,48.7,52.5,56.2,59.8,63.2,66.4,69.4,72.1,74.6,76.8,78.9,80.6,82.2,83.6,84.8,85.9,86.8,87.5]
	    },
	    {
		"tc": 70,
		"cells": [33.8,37.1,40.5,43.9,47.4,50.8,54.2,57.4,60.6,63.5,66.3,68.9,71.3,73.4,75.4,77.2,78.8,80.2,81.5,82.6,83.6,84.4]
	    },
	    {
		"tc": 80,
		"cells": [31.5,34.6,37.8,41.1,44.3,47.6,50.8,53.9,56.9,59.8,62.5,65,67.3,69.4,71.4,73.1,74.7,76.1,77.3,78.5,79.4,80.3]
	    },
	    {
		"tc": 90,
		"cells": [31.6,34.4,37.3,40.2,43.2,46.1,49,51.9,54.6,57.3,59.8,62.2,64.4,66.5,68.4,70.2,71.8,73.3,74.6,75.8,76.9,77.8]
	    },
	    {
		"tc": 100,
		"cells": [30.3,33.1,35.9,38.8,41.6,44.5,47.4,50.2,52.8,55.4,57.9,60.2,62.4,64.4,66.2,67.9,69.5,70.9,72.1,73.3,74.3,75.2]
	    },
	    {
		"tc": 110,
		"cells": [30.1,32.7,35.4,38.2,41,43.7,46.4,49.1,51.6,54.1,56.4,58.6,60.7,62.6,64.3,66,67.4,68.8,70,71.1,72,72.9]
	    },
	    {
		"tc": 120,
		"cells": [29.7,32.2,34.8,37.4,40,42.6,45.2,47.7,50.1,52.5,54.7,56.8,58.7,60.6,62.3,63.8,65.2,66.5,67.7,68.8,69.7,70.6]
	    },
	    {
		"tc": 135,
		"cells": [28.8,31.3,33.7,36.2,38.7,41.2,43.7,46.1,48.4,50.7,52.8,54.8,56.7,58.5,60.1,61.6,63,64.2,65.4,66.4,67.3,68.2]
	    },
	    {
		"tc": 150,
		"cells": [28.4,30.7,33,35.4,37.8,40.2,42.5,44.8,47,49.2,51.2,53.1,54.9,56.6,58.2,59.7,61,62.3,63.4,64.4,65.3,66.1]
	    }
	]}
]
